[
  {
    "name": "AppIndicator3",
    "slug": "appindicator301~0.1_api",
    "type": "gir",
    "version": "0.1 API",
    "mtime": 1527776258,
    "db_size": 40246
  },
  {
    "name": "AppStreamGlib",
    "slug": "appstreamglib10~1.0_api",
    "type": "gir",
    "version": "1.0 API",
    "mtime": 1527706249,
    "db_size": 436452
  },
  {
    "name": "Atk",
    "slug": "atk10~2.28.1",
    "type": "gir",
    "version": "2.28.1",
    "mtime": 1527706252,
    "db_size": 451978
  },
  {
    "name": "Atspi",
    "slug": "atspi20~2.0_api",
    "type": "gir",
    "version": "2.0 API",
    "mtime": 1527706254,
    "db_size": 312930
  },
  {
    "name": "cairo",
    "slug": "cairo10~1.0_api",
    "type": "gir",
    "version": "1.0 API",
    "mtime": 1527706256,
    "db_size": 30469
  },
  {
    "name": "Cally",
    "slug": "cally10~1.6p",
    "type": "gir",
    "version": "1.6+",
    "mtime": 1527706261,
    "db_size": 24524
  },
  {
    "name": "Cheese",
    "slug": "cheese30~3.0_api",
    "type": "gir",
    "version": "3.0 API",
    "mtime": 1527706270,
    "db_size": 42460
  },
  {
    "name": "Clutter",
    "slug": "clutter10~1.26.2",
    "type": "gir",
    "version": "1.26.2",
    "mtime": 1527706291,
    "db_size": 3599950
  },
  {
    "name": "ClutterGdk",
    "slug": "cluttergdk10~1.22p",
    "type": "gir",
    "version": "1.22+",
    "mtime": 1527706296,
    "db_size": 7878
  },
  {
    "name": "ClutterGst",
    "slug": "cluttergst30~3.0.26",
    "type": "gir",
    "version": "3.0.26",
    "mtime": 1527706309,
    "db_size": 111613
  },
  {
    "name": "ClutterX11",
    "slug": "clutterx1110~1.22p",
    "type": "gir",
    "version": "1.22+",
    "mtime": 1527706312,
    "db_size": 35465
  },
  {
    "name": "Cogl",
    "slug": "cogl20~2.0p",
    "type": "gir",
    "version": "2.0+",
    "mtime": 1527706319,
    "db_size": 730998
  },
  {
    "name": "Cogl",
    "slug": "cogl10~2.0p",
    "type": "gir",
    "version": "2.0+",
    "mtime": 1527706315,
    "db_size": 299932
  },
  {
    "name": "CoglPango",
    "slug": "coglpango20~2.0_api",
    "type": "gir",
    "version": "2.0 API",
    "mtime": 1527706322,
    "db_size": 15719
  },
  {
    "name": "CoglPango",
    "slug": "coglpango10~1.14p",
    "type": "gir",
    "version": "1.14+",
    "mtime": 1527706320,
    "db_size": 13098
  },
  {
    "name": "CSS",
    "slug": "css",
    "type": "mdn",
    "mtime": 1527706634,
    "db_size": 10997051
  },
  {
    "name": "Dbusmenu",
    "slug": "dbusmenu04~0.4_api",
    "type": "gir",
    "version": "0.4 API",
    "mtime": 1527706636,
    "db_size": 101722
  },
  {
    "name": "EvinceDocument",
    "slug": "evincedocument30~3.28.2",
    "type": "gir",
    "version": "3.28.2",
    "mtime": 1527706642,
    "db_size": 240879
  },
  {
    "name": "EvinceView",
    "slug": "evinceview30~3.6p",
    "type": "gir",
    "version": "3.6+",
    "mtime": 1527706647,
    "db_size": 116819
  },
  {
    "name": "GCab",
    "slug": "gcab10~1.0_api",
    "type": "gir",
    "version": "1.0 API",
    "mtime": 1527706649,
    "db_size": 28560
  },
  {
    "name": "Gdk",
    "slug": "gdk20~2.24p",
    "type": "gir",
    "version": "2.24+",
    "mtime": 1527706660,
    "db_size": 1483681
  },
  {
    "name": "Gdk",
    "slug": "gdk30~3.22p",
    "type": "gir",
    "version": "3.22+",
    "mtime": 1527706672,
    "db_size": 1667373
  },
  {
    "name": "GdkPixbuf",
    "slug": "gdkpixbuf20~2.36.12",
    "type": "gir",
    "version": "2.36.12",
    "mtime": 1527706674,
    "db_size": 151415
  },
  {
    "name": "GdkX11",
    "slug": "gdkx1120~2.24p",
    "type": "gir",
    "version": "2.24+",
    "mtime": 1527706678,
    "db_size": 34504
  },
  {
    "name": "GdkX11",
    "slug": "gdkx1130~3.2p",
    "type": "gir",
    "version": "3.2+",
    "mtime": 1527706682,
    "db_size": 65762
  },
  {
    "name": "GeocodeGlib",
    "slug": "geocodeglib10~3.23.1p",
    "type": "gir",
    "version": "3.23.1+",
    "mtime": 1527706685,
    "db_size": 113740
  },
  {
    "name": "Gio",
    "slug": "gio20~2.56p",
    "type": "gir",
    "version": "2.56+",
    "mtime": 1527706701,
    "db_size": 3036218
  },
  {
    "name": "GIRepository",
    "slug": "girepository20~2.0_api",
    "type": "gir",
    "version": "2.0 API",
    "mtime": 1527706703,
    "db_size": 196414
  },
  {
    "name": "GLib",
    "slug": "glib20~2.56.1",
    "type": "gir",
    "version": "2.56.1",
    "mtime": 1527706712,
    "db_size": 1251573
  },
  {
    "name": "GModule",
    "slug": "gmodule20~2.0_api",
    "type": "gir",
    "version": "2.0 API",
    "mtime": 1527206837,
    "db_size": 10695
  },
  {
    "name": "Goa",
    "slug": "goa10~3.26.0p",
    "type": "gir",
    "version": "3.26.0+",
    "mtime": 1527706717,
    "db_size": 507023
  },
  {
    "name": "GObject",
    "slug": "gobject20~2.54p",
    "type": "gir",
    "version": "2.54+",
    "mtime": 1527706720,
    "db_size": 377355
  },
  {
    "name": "Grl",
    "slug": "grl03~0.3.0p",
    "type": "gir",
    "version": "0.3.0+",
    "mtime": 1527706726,
    "db_size": 307433
  },
  {
    "name": "GrlNet",
    "slug": "grlnet03~0.3_api",
    "type": "gir",
    "version": "0.3 API",
    "mtime": 1527706728,
    "db_size": 11331
  },
  {
    "name": "GrlPls",
    "slug": "grlpls03~0.2.0p",
    "type": "gir",
    "version": "0.2.0+",
    "mtime": 1527706730,
    "db_size": 8994
  },
  {
    "name": "Gspell",
    "slug": "gspell1~1_api",
    "type": "gir",
    "version": "1 API",
    "mtime": 1527706736,
    "db_size": 61299
  },
  {
    "name": "GSSDP",
    "slug": "gssdp10~1.0_api",
    "type": "gir",
    "version": "1.0 API",
    "mtime": 1527706738,
    "db_size": 30309
  },
  {
    "name": "GstAllocators",
    "slug": "gstallocators10~1.14p",
    "type": "gir",
    "version": "1.14+",
    "mtime": 1527706751,
    "db_size": 17031
  },
  {
    "name": "GstApp",
    "slug": "gstapp10~1.0_api",
    "type": "gir",
    "version": "1.0 API",
    "mtime": 1527706753,
    "db_size": 63570
  },
  {
    "name": "GstAudio",
    "slug": "gstaudio10~1.14p",
    "type": "gir",
    "version": "1.14+",
    "mtime": 1527706756,
    "db_size": 290111
  },
  {
    "name": "GstBase",
    "slug": "gstbase10~1.6p",
    "type": "gir",
    "version": "1.6+",
    "mtime": 1527706759,
    "db_size": 245884
  },
  {
    "name": "GstCheck",
    "slug": "gstcheck10~1.12p",
    "type": "gir",
    "version": "1.12+",
    "mtime": 1527706761,
    "db_size": 54046
  },
  {
    "name": "GstController",
    "slug": "gstcontroller10~1.0_api",
    "type": "gir",
    "version": "1.0 API",
    "mtime": 1527706763,
    "db_size": 36350
  },
  {
    "name": "GstNet",
    "slug": "gstnet10~1.6p",
    "type": "gir",
    "version": "1.6+",
    "mtime": 1527706766,
    "db_size": 36964
  },
  {
    "name": "GstPbutils",
    "slug": "gstpbutils10~1.14.0",
    "type": "gir",
    "version": "1.14.0",
    "mtime": 1527706769,
    "db_size": 170076
  },
  {
    "name": "GstRtp",
    "slug": "gstrtp10~1.10p",
    "type": "gir",
    "version": "1.10+",
    "mtime": 1527706771,
    "db_size": 77777
  },
  {
    "name": "GstRtsp",
    "slug": "gstrtsp10~1.12p",
    "type": "gir",
    "version": "1.12+",
    "mtime": 1527706774,
    "db_size": 82760
  },
  {
    "name": "GstSdp",
    "slug": "gstsdp10~1.8p",
    "type": "gir",
    "version": "1.8+",
    "mtime": 1527706779,
    "db_size": 21025
  },
  {
    "name": "GstTag",
    "slug": "gsttag10~1.10p",
    "type": "gir",
    "version": "1.10+",
    "mtime": 1527706781,
    "db_size": 80066
  },
  {
    "name": "GstVideo",
    "slug": "gstvideo10~1.12p",
    "type": "gir",
    "version": "1.12+",
    "mtime": 1527706786,
    "db_size": 455128
  },
  {
    "name": "Gtk",
    "slug": "gtk30~3.22.30",
    "type": "gir",
    "version": "3.22.30",
    "mtime": 1527706838,
    "db_size": 5447707
  },
  {
    "name": "Gtk",
    "slug": "gtk20~2.24.32",
    "type": "gir",
    "version": "2.24.32",
    "mtime": 1527706810,
    "db_size": 3974422
  },
  {
    "name": "GtkClutter",
    "slug": "gtkclutter10~1.0p",
    "type": "gir",
    "version": "1.0+",
    "mtime": 1527706848,
    "db_size": 23912
  },
  {
    "name": "GtkSource",
    "slug": "gtksource30~3.24p",
    "type": "gir",
    "version": "3.24+",
    "mtime": 1527706855,
    "db_size": 475444
  },
  {
    "name": "GUdev",
    "slug": "gudev10~165p",
    "type": "gir",
    "version": "165+",
    "mtime": 1527706861,
    "db_size": 44888
  },
  {
    "name": "GUPnP",
    "slug": "gupnp10~1.0_api",
    "type": "gir",
    "version": "1.0 API",
    "mtime": 1527706863,
    "db_size": 153637
  },
  {
    "name": "GUPnPDLNA",
    "slug": "gupnpdlna20~2.0_api",
    "type": "gir",
    "version": "2.0 API",
    "mtime": 1527706865,
    "db_size": 27859
  },
  {
    "name": "GUPnPDLNAGst",
    "slug": "gupnpdlnagst20~2.0_api",
    "type": "gir",
    "version": "2.0 API",
    "mtime": 1527706867,
    "db_size": 1702
  },
  {
    "name": "GWeather",
    "slug": "gweather30~3.12p",
    "type": "gir",
    "version": "3.12+",
    "mtime": 1527706872,
    "db_size": 92067
  },
  {
    "name": "GXPS",
    "slug": "gxps01~0.3.0",
    "type": "gir",
    "version": "0.3.0",
    "mtime": 1527706875,
    "db_size": 39874
  },
  {
    "name": "IBus",
    "slug": "ibus10~1.5.18",
    "type": "gir",
    "version": "1.5.18",
    "mtime": 1527706890,
    "db_size": 2008326
  },
  {
    "name": "JavaScript",
    "slug": "javascript",
    "type": "mdn",
    "mtime": 1527707718,
    "db_size": 6086499
  },
  {
    "name": "Json",
    "slug": "json10~1.4.2",
    "type": "gir",
    "version": "1.4.2",
    "mtime": 1527707721,
    "db_size": 180553
  },
  {
    "name": "NetworkManager",
    "slug": "networkmanager10~1.10.8",
    "type": "gir",
    "version": "1.10.8",
    "mtime": 1527707727,
    "db_size": 829153
  },
  {
    "name": "NMClient",
    "slug": "nmclient10~1.0_api",
    "type": "gir",
    "version": "1.0 API",
    "mtime": 1527707730,
    "db_size": 386373
  },
  {
    "name": "Notify",
    "slug": "notify07~0.7.7",
    "type": "gir",
    "version": "0.7.7",
    "mtime": 1527707732,
    "db_size": 24834
  },
  {
    "name": "Pango",
    "slug": "pango10~1.42p",
    "type": "gir",
    "version": "1.42+",
    "mtime": 1527707735,
    "db_size": 415827
  },
  {
    "name": "PangoCairo",
    "slug": "pangocairo10~1.22p",
    "type": "gir",
    "version": "1.22+",
    "mtime": 1527707736,
    "db_size": 32034
  },
  {
    "name": "PangoFT2",
    "slug": "pangoft210~1.0_api",
    "type": "gir",
    "version": "1.0 API",
    "mtime": 1527707737,
    "db_size": 9145
  },
  {
    "name": "PangoXft",
    "slug": "pangoxft10~1.8p",
    "type": "gir",
    "version": "1.8+",
    "mtime": 1527707739,
    "db_size": 22567
  },
  {
    "name": "Peas",
    "slug": "peas10~1.2p",
    "type": "gir",
    "version": "1.2+",
    "mtime": 1527707741,
    "db_size": 55113
  },
  {
    "name": "PeasGtk",
    "slug": "peasgtk10~1.0_api",
    "type": "gir",
    "version": "1.0 API",
    "mtime": 1527707744,
    "db_size": 13776
  },
  {
    "name": "Polkit",
    "slug": "polkit10~1.0_api",
    "type": "gir",
    "version": "1.0 API",
    "mtime": 1527707747,
    "db_size": 129290
  },
  {
    "name": "PolkitAgent",
    "slug": "polkitagent10~1.0_api",
    "type": "gir",
    "version": "1.0 API",
    "mtime": 1527707748,
    "db_size": 27546
  },
  {
    "name": "Rest",
    "slug": "rest07~0.7_api",
    "type": "gir",
    "version": "0.7 API",
    "mtime": 1527707754,
    "db_size": 90626
  },
  {
    "name": "RestExtras",
    "slug": "restextras07~0.7_api",
    "type": "gir",
    "version": "0.7 API",
    "mtime": 1527707756,
    "db_size": 22590
  },
  {
    "name": "Secret",
    "slug": "secret1~1_api",
    "type": "gir",
    "version": "1 API",
    "mtime": 1527707760,
    "db_size": 158566
  },
  {
    "name": "Soup",
    "slug": "soup24~2.62.2",
    "type": "gir",
    "version": "2.62.2",
    "mtime": 1527707764,
    "db_size": 702532
  },
  {
    "name": "SoupGNOME",
    "slug": "soupgnome24~2.4_api",
    "type": "gir",
    "version": "2.4 API",
    "mtime": 1527707766,
    "db_size": 6473
  },
  {
    "name": "TelepathyGLib",
    "slug": "telepathyglib012~0.23.0p",
    "type": "gir",
    "version": "0.23.0+",
    "mtime": 1527707775,
    "db_size": 1704841
  },
  {
    "name": "UPowerGlib",
    "slug": "upowerglib10~1.0_api",
    "type": "gir",
    "version": "1.0 API",
    "mtime": 1527707779,
    "db_size": 64770
  },
  {
    "name": "Vte",
    "slug": "vte291~2.91_api",
    "type": "gir",
    "version": "2.91 API",
    "mtime": 1527707791,
    "db_size": 142924
  },
  {
    "name": "Zpj",
    "slug": "zpj00~0.0_api",
    "type": "gir",
    "version": "0.0 API",
    "mtime": 1527707796,
    "db_size": 61693
  }
]